[
  {"ror": "https://ror.org/04xfq0f34", "label": "Rheinisch-Westfälische Technische Hochschule (RWTH) Aachen"},
  {"ror": "https://ror.org/00t3r8h32", "label": "Universität zu Lübeck"},
  {"ror": "https://ror.org/00gzkxz88", "label": "Hochschule Weihenstephan-Triesdorf"},
  {"ror": "https://ror.org/04zc7p361", "label": "Universität Kassel"},
  {"ror": "https://ror.org/04qb8nc58", "label": "Technische Universität Clausthal"},
  {"ror": "https://ror.org/05591te55", "label": "Ludwig-Maximilians-Universität München"},
  {"ror": "https://ror.org/013czdx64", "label": "Universitätsklinikum Heidelberg"},
  {"ror": "https://ror.org/00f7hpc57", "label": "Friedrich-Alexander-Universität Erlangen-Nürnberg"},
  {"ror": "https://ror.org/033n9gh91", "label": "Carl von Ossietzky Universität Oldenburg"},
  {"ror": "https://ror.org/04tsk2644", "label": "Ruhr-Universität Bochum"},
  {"ror": "https://ror.org/031bsb921", "label": "Universität Mannheim"},
  {"ror": "https://ror.org/00r1edq15", "label": "Universität Greifswald"},
  {"ror": "https://ror.org/01k97gp34", "label": "Technische Universität Dortmund"},
  {"ror": "https://ror.org/04mz5ra38", "label": "Universität Duisburg-Essen"},
  {"ror": "https://ror.org/04vnq7t77", "label": "Universität Stuttgart"},
  {"ror": "https://ror.org/023b0x485", "label": "Johannes Gutenberg-Universität Mainz"},
  {"ror": "https://ror.org/00ggpsq73", "label": "Otto-von-Guericke-Universität Magdeburg"},
  {"ror": "https://ror.org/02azyry73", "label": "Universität Siegen"},
  {"ror": "https://ror.org/01j9f6752", "label": "Universität Koblenz-Landau"},
  {"ror": "https://ror.org/00pd74e08", "label": "Universität Münster"},
  {"ror": "https://ror.org/0245cg223", "label": "Albert-Ludwigs-Universität Freiburg"},
  {"ror": "https://ror.org/00rcxh774", "label": "Universität zu Köln"},
  {"ror": "https://ror.org/032000t02", "label": "Universität Ulm"},
  {"ror": "https://ror.org/03v4gjf40", "label": "Technische Universität Berlin"},
  {"ror": "https://ror.org/010nsgg66", "label": "Technische Universität Braunschweig"},
  {"ror": "https://ror.org/00a208s56", "label": "Technische Universität Chemnitz"},
  {"ror": "https://ror.org/04bs1pb34", "label": "Technische Universität Hamburg"},
  {"ror": "https://ror.org/02kkvpp62", "label": "Technische Universität München"},
  {"ror": "https://ror.org/03p14d497", "label": "Universität Augsburg"},
  {"ror": "https://ror.org/01c1w6d29", "label": "Otto-Friedrich-Universität Bamberg"},
  {"ror": "https://ror.org/0234wmv40", "label": "Universität Bayreuth"},
  {"ror": "https://ror.org/01hcx6992", "label": "Humboldt-Universität zu Berlin"},
  {"ror": "https://ror.org/02hpadn98", "label": "Universität Bielefeld"},
  {"ror": "https://ror.org/04zrf7b53", "label": "Technische Universität Kaiserslautern"},
  {"ror": "https://ror.org/038t36y30", "label": "Universität Heidelberg"},
  {"ror": "https://ror.org/03vzbgh69", "label": "Universitätsklinikum Freiburg"},
  {"ror": "https://ror.org/01eezs655", "label": "Universität Regensburg"},
  {"ror": "https://ror.org/00613ak93", "label": "Bergische Universität Wuppertal"},
  {"ror": "https://ror.org/04cvxnb49", "label": "Johann Wolfgang Goethe-Universität Frankfurt"},
  {"ror": "https://ror.org/00fbnyb24", "label": "Julius-Maximilians-Universität Würzburg"},
  {"ror": "https://ror.org/033eqas34", "label": "Justus-Liebig-Universität Gießen"},
  {"ror": "https://ror.org/02wxx3e24", "label": "Brandenburgische Technische Universität Cottbus-Senftenberg"},
  {"ror": "https://ror.org/05gqaka33", "label": "Martin-Luther-Universität Halle-Wittenberg"},
  {"ror": "https://ror.org/00g30e956", "label": "Universität Hamburg"},
  {"ror": "https://ror.org/0304hq317", "label": "Gottfried Wilhelm Leibniz Universität Hannover"},
  {"ror": "https://ror.org/02f9det96", "label": "Stiftung Universität Hildesheim"},
  {"ror": "https://ror.org/00b1c9541", "label": "Universität Hohenheim"},
  {"ror": "https://ror.org/05qpz1x62", "label": "Friedrich-Schiller-Universität Jena"},
  {"ror": "https://ror.org/03s7gtk40", "label": "Universität Leipzig"},
  {"ror": "https://ror.org/04v76ef78", "label": "Christian-Albrechts-Universität zu Kiel"},
  {"ror": "https://ror.org/0546hnb39", "label": "Universität Konstanz"},
  {"ror": "https://ror.org/02w2y2t16", "label": "Leuphana Universität Lüneburg"},
  {"ror": "https://ror.org/01rdrb571", "label": "Philipps-Universität Marburg"},
  {"ror": "https://ror.org/041nas322", "label": "Rheinische Friedrich-Wilhelms-Universität Bonn"},
  {"ror": "https://ror.org/03a1kwz48", "label": "Eberhard Karls Universität Tübingen"},
  {"ror": "https://ror.org/03zdwsf69", "label": "Universität Rostock"},
  {"ror": "https://ror.org/04qmmjx98", "label": "Universität Osnabrück"},
  {"ror": "https://ror.org/05ydjnb78", "label": "Universität Passau"},
  {"ror": "https://ror.org/03bnmw459", "label": "Universität Potsdam"},
  {"ror": "https://ror.org/00fkqwx76", "label": "Hochschule für Angewandte Wissenschaften Hamburg (HAW Hamburg)"},
  {"ror": "https://ror.org/01jdpyv68", "label": "Universität des Saarlandes"},
  {"ror": "https://ror.org/02778hg05", "label": "Universität Trier"},
  {"ror": "https://ror.org/01zgy1s35", "label": "Universitätsklinikum Hamburg-Eppendorf (UKE)"},
  {"ror": "https://ror.org/046ak2485", "label": "Freie Universität Berlin"},
  {"ror": "https://ror.org/006k2kk72", "label": "Heinrich-Heine-Universität Düsseldorf"},
  {"ror": "https://ror.org/02yrs2n53", "label": "Jacobs University Bremen"},
  {"ror": "https://ror.org/01xnwqx93", "label": "Universitätsklinikum Bonn"},
  {"ror": "https://ror.org/01856cw59", "label": "Universitätsklinikum Münster"},
  {"ror": "https://ror.org/02m11x738", "label": "Hochschule Furtwangen"},
  {"ror": "https://ror.org/0189raq88", "label": "Deutsche Sporthochschule Köln"},
  {"ror": "https://ror.org/04tkkr536", "label": "FernUniversität in Hagen"},
  {"ror": "https://ror.org/03606hw36", "label": "Universität Erfurt"},
  {"ror": "https://ror.org/02msan859", "label": "Europa-Universität Viadrina Frankfurt (Oder)"},
  {"ror": "https://ror.org/033bb5z47", "label": "Bauhaus-Universität Weimar"},
  {"ror": "https://ror.org/05dkqa017", "label": "Hochschule Kaiserslautern"},
  {"ror": "https://ror.org/04e8jbs38", "label": "Helmut-Schmidt-Universität/Universität der Bundeswehr Hamburg"},
  {"ror": "https://ror.org/05tbp1g38", "label": "Zeppelin Universität"},
  {"ror": "https://ror.org/02m4p8096", "label": "Hochschule für angewandte Wissenschaften Kempten"},
  {"ror": "https://ror.org/035rzkx15", "label": "Universitätsklinikum Jena"},
  {"ror": "https://ror.org/00q1fsf04", "label": "Universitätsmedizin der Johannes Gutenberg-Universität Mainz"},
  {"ror": "https://ror.org/05emabm63", "label": "Universitätsklinikum Ulm"},
  {"ror": "https://ror.org/02na8dn90", "label": "Universitätsklinikum Essen"},
  {"ror": "https://ror.org/032nzv584", "label": "UKGM - Universitätsklinikum Gießen und Marburg"},
  {"ror": "https://ror.org/03f6n9m15", "label": "Universitätsklinikum Frankfurt"},
  {"ror": "https://ror.org/03zcpvf19", "label": "Universitätsklinikum der Ruhr-Universität Bochum"},
  {"ror": "https://ror.org/05mxhda18", "label": "Universitätsklinikum Köln"},
  {"ror": "https://ror.org/024z2rq82", "label": "Heinrich-Heine-Universität Düsseldorf"},
  {"ror": "https://ror.org/028hv5492", "label": "Universitätsklinikum Leipzig"},
  {"ror": "https://ror.org/00pjgxh97", "label": "Universitätsklinikum Tübingen"},
  {"ror": "https://ror.org/03m04df46", "label": "Universitätsklinikum Magdeburg"},
  {"ror": "https://ror.org/0030f2a11", "label": "Universitätsklinikum Erlangen"},
  {"ror": "https://ror.org/03pvr2g57", "label": "Universitätsklinikum Würzburg"},
  {"ror": "https://ror.org/05sxbyd35", "label": "Universitätsklinikum Mannheim"},
  {"ror": "https://ror.org/00nvxt968", "label": "Universitätsklinikum des Saarlandes"},
  {"ror": "https://ror.org/01226dv09", "label": "Universitätsklinikum Regensburg"},
  {"ror": "https://ror.org/021ft0n22", "label": "Georg-August-Universität Göttingen - Universitätsmedizin Göttingen"},
  {"ror": "https://ror.org/04za5zm41", "label": "Universitätsklinikum Carl Gustav Carus Dresden"},
  {"ror": "https://ror.org/02gm5zw39", "label": "Universitätsklinikum Aachen"},
  {"ror": "https://ror.org/02b48z609", "label": "Hubertus Wald Tumorzentrum - Universitäres Cancer Center Hamburg (UCCH)"},
  {"ror": "https://ror.org/01tvm6f46", "label": "Universitätsklinikum Schleswig-Holstein"},
  {"ror": "https://ror.org/025vngs54", "label": "Universitätsmedizin Greifswald"},
  {"ror": "https://ror.org/04j9bvy88", "label": "Berufsgenossenschaftliches Universitätsklinikum Bergmannsheil"},
  {"ror": "https://ror.org/01xkmcr24", "label": "Universitäts-Augenklinik Bonn"},
  {"ror": "https://ror.org/00yq55g44", "label": "Private Universität Witten/Herdecke"},
  {"ror": "https://ror.org/015qjqf64", "label": "Stiftung Tierärztliche Hochschule Hannover"},
  {"ror": "https://ror.org/01rfnc002", "label": "Ernst-Abbe-Hochschule Jena"},
  {"ror": "https://ror.org/04dm1cm79", "label": "Universitätsmedizin Rostock"},
  {"ror": "https://ror.org/02w6m7e50", "label": "Universitäts-Herzzentrum Freiburg-Bad Krozingen"},
  {"ror": "https://ror.org/03b0k9c14", "label": "Universitätsklinikum Augsburg"},
  {"ror": "https://ror.org/05myv7q56", "label": "Hochschule Geisenheim University (HGU)"},
  {"ror": "https://ror.org/04f7jc139", "label": "Hochschule Bremen"},
  {"ror": "https://ror.org/02ge27m07", "label": "Hochschule für Technik und des Saarlandes"},
  {"ror": "https://ror.org/00s1ckt27", "label": "Hochschule Wismar"},
  {"ror": "https://ror.org/04m2anh63", "label": "Hochschule Bonn-Rhein-Sieg"},
  {"ror": "https://ror.org/04p7ekn23", "label": "Westfälische Hochschule"},
  {"ror": "https://ror.org/0076zct58", "label": "Hochschule Anhalt"},
  {"ror": "https://ror.org/041bz9r75", "label": "Hochschule Fulda"},
  {"ror": "https://ror.org/00edvg943", "label": "Hochschule Bielefeld"},
  {"ror": "https://ror.org/00q644y50", "label": "Hochschule Reutlingen / Reutlingen University"},
  {"ror": "https://ror.org/014nnvj65", "label": "TH Köln"},
  {"ror": "https://ror.org/059vymd37", "label": "Hochschule Osnabrück"},
  {"ror": "https://ror.org/02e3hdx05", "label": "Hochschule Trier"},
  {"ror": "https://ror.org/05e5kd476", "label": "Technische Hochschule Ulm"},
  {"ror": "https://ror.org/022r03w28", "label": "Hochschule der Medien"},
  {"ror": "https://ror.org/05q5pk319", "label": "Hochschule für Technik und Wirtschaft Dresden"},
  {"ror": "https://ror.org/012k1v959", "label": "Hochschule für angewandte Wissenschaften München"},
  {"ror": "https://ror.org/039gdg280", "label": "Hochschule für Technik Stuttgart"},
  {"ror": "https://ror.org/01c0m1t63", "label": "Hochschule Karlsruhe"},
  {"ror": "https://ror.org/04eka8j06", "label": "Technische Hochschule Ostwestfalen-Lippe"},
  {"ror": "https://ror.org/04b9vrm74", "label": "Ostbayerische Technische Hochschule Regensburg"},
  {"ror": "https://ror.org/00k62pe27", "label": "Technische Hochschule Wildau"},
  {"ror": "https://ror.org/031ph8d53", "label": "Hochschule Worms"},
  {"ror": "https://ror.org/056tzgr32", "label": "Hochschule Zittau/Görlitz"},
  {"ror": "https://ror.org/04gg60e72", "label": "Hochschule Aalen - Technik und Wirtschaft"},
  {"ror": "https://ror.org/00w7whj55", "label": "Berliner Hochschule für Technik (BHT)"},
  {"ror": "https://ror.org/0004r6b85", "label": "Hochschule Biberarch"},
  {"ror": "https://ror.org/00mx91s63", "label": "Katholische Universität Eichstätt-Ingolstadt"},
  {"ror": "https://ror.org/01t4pxy10", "label": "Dresden International University"},
  {"ror": "https://ror.org/03hj50651", "label": "Hochschulen Fresenius"},
  {"ror": "https://ror.org/01fzsd381", "label": "HafenCity Universität Hamburg"},
  {"ror": "https://ror.org/048yn7628", "label": "Hochschule Harz, Hochschule für angewandte Wissenschaften"},
  {"ror": "https://ror.org/027b9qx26", "label": "Hochschule Niederrhein"},
  {"ror": "https://ror.org/03q0ab227", "label": "Fachhochschule Kiel"},
  {"ror": "https://ror.org/04j351e79", "label": "Hochschule Koblenz"},
  {"ror": "https://ror.org/04vjfp916", "label": "Hochschule Magdeburg-Stendal"},
  {"ror": "https://ror.org/04p61dj41", "label": "Hochschule Mannheim"},
  {"ror": "https://ror.org/00pv45a02", "label": "FH Münster"},
  {"ror": "https://ror.org/02nq4wt82", "label": "Hochschule Schmalkalden"},
  {"ror": "https://ror.org/02qdc9985", "label": "Technische Hochschule Mittelhessen (THM)"},
  {"ror": "https://ror.org/016604a03", "label": "Hochschule für angewandte Wissenschaften Augsburg"},
  {"ror": "https://ror.org/00ftx0026", "label": "Hochschule Düsseldorf"},
  {"ror": "https://ror.org/03zh5eq96", "label": "Hochschule Offenburg"},
  {"ror": "https://ror.org/04enhpe73", "label": "Leibniz-Institut für Atmosphärenphysik an der Universität Rostock"},
  {"ror": "https://ror.org/01js9jv94", "label": "EBS Universität für Wirtschaft und Recht"},
  {"ror": "https://ror.org/03yjyed28", "label": "Karlshochschule International University"},
  {"ror": "https://ror.org/05m0ggf57", "label": "Katholische Hochschule Mainz"},
  {"ror": "https://ror.org/056cezx90", "label": "Hochschule Esslingen"},
  {"ror": "https://ror.org/01w0fb867", "label": "Alanus Hochschule"},
  {"ror": "https://ror.org/04b404920", "label": "Alice Salomon Hochschule Berlin"},
  {"ror": "https://ror.org/03gf02c22", "label": "Folkwang Universität der Künste"},
  {"ror": "https://ror.org/05m3vpd98", "label": "FOM Hochschule für Oekonomie & Management"},
  {"ror": "https://ror.org/02r625m11", "label": "Frankfurt University of Applied Sciences"},
  {"ror": "https://ror.org/03c0qqf32", "label": "Hochschule für Musik und Darstellende Kunst Frankfurt am Main"},
  {"ror": "https://ror.org/038rep477", "label": "Theologische Hochschule Friedensau"},
  {"ror": "https://ror.org/00z9cn431", "label": "Kuehne Logistics University"},
  {"ror": "https://ror.org/01d30w739", "label": "Deutsche Universität für Verwaltungswissenschaften Speyer"},
  {"ror": "https://ror.org/03xgcq477", "label": "Hochschule für Technik, Wirtschaft und Kultur Leipzig"},
  {"ror": "https://ror.org/0167rnj42", "label": "Hochschule für angewandte Wissenschaften Ansbach"},
  {"ror": "https://ror.org/02j0n6s98", "label": "Pädagogische Hochschule Ludwigsburg"},
  {"ror": "https://ror.org/042xxdh20", "label": "Hochschule für Wirtschaft und Gesellschaft Ludwigshafen"},
  {"ror": "https://ror.org/047wbd030", "label": "Hochschule Darmstadt"},
  {"ror": "https://ror.org/01tbgce33", "label": "Evangelische Hochschule Nürnberg"},
  {"ror": "https://ror.org/04f8x5b20", "label": "Hochschule Merseburg"},
  {"ror": "https://ror.org/03dv91853", "label": "Fachhochschule Dortmund"},
  {"ror": "https://ror.org/00qakfc35", "label": "Hochschule Pforzheim - Gestaltung, Technik, Wirtschaft und Recht"},
  {"ror": "https://ror.org/02xdzy536", "label": "Duale Hochschule Baden-Württemberg"},
  {"ror": "https://ror.org/02vvvm705", "label": "Jade Hochschule"},
  {"ror": "https://ror.org/03w3a0h43", "label": "Evangelische Hochschule Freiburg"},
  {"ror": "https://ror.org/03eznrw16", "label": "Universität der Künste Berlin"},
  {"ror": "https://ror.org/014cnmj57", "label": "Duale Hochschule Baden-Württemberg Ravensburg"},
  {"ror": "https://ror.org/0378gm372", "label": "Hochschule RheinMain"},
  {"ror": "https://ror.org/04wdt0z89", "label": "Hochschule Rhein-Waal"},
  {"ror": "https://ror.org/031yv7164", "label": "Hochschule für Musik und Theater Rostock"},
  {"ror": "https://ror.org/02pnhcc10", "label": "Hochschule für Forstwirtschaft Rottenburg (HFR)"},
  {"ror": "https://ror.org/04nbz6d36", "label": "Hochschule Nordhausen"},
  {"ror": "https://ror.org/02rqsa469", "label": "Hochschule für Wirtschaft und Umwelt Nürtingen-Geislingen (HfWU)"},
  {"ror": "https://ror.org/03wf51b65", "label": "Sächsische Landesbibliothek - Staats- und Universitätsbibliothek Dresden"},
  {"ror": "https://ror.org/046e0mt33", "label": "Europa-Universität Flensburg"},
  {"ror": "https://ror.org/01a7snz60", "label": "Hochschule für Fernsehen und Film München"},
  {"ror": "https://ror.org/02fstjp34", "label": "Hochschule für Künste Bremen"},
  {"ror": "https://ror.org/01pxkj057", "label": "Technischen Hochschule Bingen"},
  {"ror": "https://ror.org/04q5vv384", "label": "Hochschule Hof"},
  {"ror": "https://ror.org/056z5bx32", "label": "Hochschule für angewandte Wissenschaften Landshut"},
  {"ror": "https://ror.org/00s4rmz74", "label": "Hochschule Ravensburg-Weingarten"},
  {"ror": "https://ror.org/03hbmgt12", "label": "Technische Hochschule Rosenheim"},
  {"ror": "https://ror.org/00bwfj843", "label": "Fachhochschule Wedel"},
  {"ror": "https://ror.org/01k5h5v15", "label": "Hochschule für angewandte Wissenschaften Würzburg-Schweinfurt"},
  {"ror": "https://ror.org/045y6d111", "label": "Universität Vechta"},
  {"ror": "https://ror.org/04msbx814", "label": "Hochschule für Musik und Theater 'Felix Mendelssohn Bartholdy' Leipzig"},
  {"ror": "https://ror.org/024ga3r86", "label": "Hochschule Mittweida, University of Applied Sciences"},
  {"ror": "https://ror.org/04qj3gf68", "label": "Technische Hochschule Brandenburg"},
  {"ror": "https://ror.org/01xpfrc74", "label": "Hochschule Flensburg"},
  {"ror": "https://ror.org/02bxzcy64", "label": "Technische Hochschule Ingolstadt "},
  {"ror": "https://ror.org/032xqbj11", "label": "Technische Hochschule Lübeck"},
  {"ror": "https://ror.org/04g99jx54", "label": "Hochschule Stralsund"},
  {"ror": "https://ror.org/04t5phd24", "label": "Fachhochschule Südwestfalen"},
  {"ror": "https://ror.org/00nggaz43", "label": "Technische Hochschule Nürnberg Georg Simon Ohm"},
  {"ror": "https://ror.org/01bc76c69", "label": "Hochschule Emden/Leer"},
  {"ror": "https://ror.org/02nkxrq89", "label": "Hochschule Ruhr West"},
  {"ror": "https://ror.org/01hqp1g48", "label": "Hochschule für öffentliche Verwaltung Kehl"},
  {"ror": "https://ror.org/051qw9f78", "label": "HTWG Hochschule Konstanz Technik, Wirtschaft und Gestaltung"},
  {"ror": "https://ror.org/04x02q560", "label": "Hochschule Bochum"},
  {"ror": "https://ror.org/004h6mc53", "label": "Katholische Kliniken Rhein-Ruhr / Marien Hospital Herne - Universitätsklinikum der Ruhr-Universität Bochum"},
  {"ror": "https://ror.org/00syyqa87", "label": "Klinik für Orthopädie (Friedrichsheim)"},
  {"ror": "https://ror.org/03crxcn36", "label": "Hochschule Albstadt- Sigmaringen"},
  {"ror": "https://ror.org/00x67m532", "label": "Hochschule für Musik, Theater und Medien Hannover"},
  {"ror": "https://ror.org/02g2sh456", "label": "Pädagogische Hochschule Schwäbisch Gmünd"},
  {"ror": "https://ror.org/04qbqv677", "label": "Filmuniversität Babelsberg Korad Wolf"},
  {"ror": "https://ror.org/001yqrb02", "label": "Hochschule Bremerhaven"},
  {"ror": "https://ror.org/00f5q5839", "label": "Hochschule für angewandte Wissenschaft und Kunst Hildesheim/Holzminden/Göttingen"},
  {"ror": "https://ror.org/02p5hsv84", "label": "Hochschule für angewandte Wissenschaften Coburg"},
  {"ror": "https://ror.org/03aft2f80", "label": "Hochschule für Bildende Künste Braunschweig"},
  {"ror": "https://ror.org/052gzq419", "label": "Hochschule für Jüdische Studien Heidelberg"},
  {"ror": "https://ror.org/000evwg49", "label": "Hochschule für Musik Franz Liszt Weimar"},
  {"ror": "https://ror.org/05256tw11", "label": "Hochschule für Musik und Tanz Köln"},
  {"ror": "https://ror.org/00dfbms98", "label": "Hochschule für Musik und Theater Hamburg"},
  {"ror": "https://ror.org/01ge5zt06", "label": "Hochschule für nachhaltige Entwicklung Eberswalde (HNEE)"},
  {"ror": "https://ror.org/001rdde17", "label": "Hochschule Hamm-Lippstadt"},
  {"ror": "https://ror.org/03m2kj587", "label": "Hochschule Hannover"},
  {"ror": "https://ror.org/04g5gcg95", "label": "Hochschule Heilbronn"},
  {"ror": "https://ror.org/03b9q7371", "label": "Hochschule Neubrandenburg"},
  {"ror": "https://ror.org/05n1ym881", "label": "Kirchliche Hochschule Wuppertal"},
  {"ror": "https://ror.org/00b6j6x40", "label": "Internationale Psychoanalytische Universität Berlin"},
  {"ror": "https://ror.org/012m9bp23", "label": "Fachhochschule Potsdam"},
  {"ror": "https://ror.org/01bk10867", "label": "Ostfalia Hochschule für angewandte Wissenschaften – Hochschule Braunschweig/Wolfenbüttel"},
  {"ror": "https://ror.org/02rtsfd15", "label": "Pädagogische Hochschule Freiburg"},
  {"ror": "https://ror.org/0044w3h23", "label": "Pädagogische Hochschule Heidelberg"},
  {"ror": "https://ror.org/04e1yzk82", "label": "Robert Schumann Hochschule Düsseldorf"},
  {"ror": "https://ror.org/01t1kq612", "label": "Pädagogische Hochschule Karlsruhe"},
  {"ror": "https://ror.org/04sz26p89", "label": "TRON - Translationale Onkologie an der Universitätsmedizin der Johannes Gutenberg-Universität Mainz"},
  {"ror": "https://ror.org/04fe46645", "label": "Universitätsklinikum Halle (Saale) - Martin-Luther-Universität Halle-Wittenberg"},
  {"ror": "https://ror.org/003tsz145", "label": "Klinikum rechts der Isar der Technischen Universität München"},
  {"ror": "https://ror.org/03ccc5z68", "label": "Evangelische Hochschule Ludwigsburg"},
  {"ror": "https://ror.org/04nkken68", "label": "Augustana-Hochschule - Theologische Hochschule der Evangelisch-Lutherischen Kirche in Bayern"},
  {"ror": "https://ror.org/00gm0aw40", "label": "Ostbayerische Technische Hochschule Amberg-Weiden"},
  {"ror": "https://ror.org/045gdxt02", "label": "Hochschule für bildende Künste (HFBK)"},
  {"ror": "https://ror.org/03hzkp562", "label": "Hochschule für Grafik und Buchkunst Leipzig / Academy of Fine Arts"},
  {"ror": "https://ror.org/00xnq7h44", "label": "Hochschule für Künste im Sozialen (HKS)"},
  {"ror": "https://ror.org/01we8bn75", "label": "PFH Private Hochschule Göttingen"},
  {"ror": "https://ror.org/024j3hn90", "label": "Universitätsklinikum Knappschaftskrankenhaus Bochum"},
  {"ror": "https://ror.org/04fdat027", "label": "IU Internationale Hochschule"},
  {"ror": "https://ror.org/03afcx965", "label": "bbw Hochschule - University of Applied Sciences"},
  {"ror": "https://ror.org/04w49ae90", "label": "EBC Hochschule"},
  {"ror": "https://ror.org/04sms9203", "label": "Technische Hochschule Aschaffenburg"},
  {"ror": "https://ror.org/05re2x545", "label": "Burg Giebichenstein Kunsthochschule Halle"},
  {"ror": "https://ror.org/01hkc4630", "label": "Fachhochschule Erfurt"},
  {"ror": "https://ror.org/00996c044", "label": "Katholische Hochschule für Sozialwesen Berlin"},
  {"ror": "https://ror.org/00vd2h880", "label": "Katholische Hochschule Freiburg"},
  {"ror": "https://ror.org/033jd5r25", "label": "Technische Hochschule Georg Agricola"},
  {"ror": "https://ror.org/01h7vw195", "label": "Deutsche Hochschule der Polizei (DHPol)"},
  {"ror": "https://ror.org/05fwp8t64", "label": "Hochschule der Deutschen Bundesbank"},
  {"ror": "https://ror.org/03czk8k96", "label": "Hochschule Macromedia"},
  {"ror": "https://ror.org/02re32a17", "label": "Hochschule Mainz"},
  {"ror": "https://ror.org/01w09y597", "label": "Staatliche Hochschule für Musik und Darstellende Kunst Mannheim"},
  {"ror": "https://ror.org/03aky0p13", "label": "Mediadesign Hochschule für Design und Informatik"},
  {"ror": "https://ror.org/03pqf0084", "label": "Internationales Hochschul Institut (IHI) Zittau der TU Dresden"},
  {"ror": "https://ror.org/03ggzay52", "label": "Hochschule für Angewandte Wissenschaften Neu-Ulm"},
  {"ror": "https://ror.org/04w23p232", "label": "Evangelische Hochschule Darmstadt"},
  {"ror": "https://ror.org/024nr0776", "label": "Katholischen Hochschule Nordrhein-Westfalen"},
  {"ror": "https://ror.org/00txhpa83", "label": "Rheinische Fachhochschule Köln"},
  {"ror": "https://ror.org/03vz3qc29", "label": "Evangelischen Hochschule Rheinland-Westfalen-Lippe"},
  {"ror": "https://ror.org/05b7xvc63", "label": "Hochschule für Musik Nürnberg"},
  {"ror": "https://ror.org/000tpgs13", "label": "Muthesius Kunsthochschule"},
  {"ror": "https://ror.org/030sdwr92", "label": "Hochschule für Gestaltung Offenbach am Main"},
  {"ror": "https://ror.org/01prjcc04", "label": "SRH Berlin University of Applied Sciences"},
  {"ror": "https://ror.org/00g07sz63", "label": "SRH Hochschule Heidelberg"},
  {"ror": "https://ror.org/026kenw55", "label": "SRH Hochschule für Gesundheit"},
  {"ror": "https://ror.org/029r33q13", "label": "Hochschule für Musik Saar"},
  {"ror": "https://ror.org/05m1pqv80", "label": "Hochschule für Musik Würzburg"},
  {"ror": "https://ror.org/02832sw36", "label": "Staatliche Hochschule für Musik Trossingen"},
  {"ror": "https://ror.org/02d89at43", "label": "Hochschule der Bundesagentur für Arbeit (HdBA)"},
  {"ror": "https://ror.org/026c3xn33", "label": "Hochschule der Wirtschaft für Management"},
  {"ror": "https://ror.org/038fwdn76", "label": "Hochschule für angewandtes Management"},
  {"ror": "https://ror.org/016zq4f37", "label": "Hochschule für Gestaltung Schwäbisch Gmünd"},
  {"ror": "https://ror.org/031eq5e98", "label": "Pädagogische Hochschule Weingarten"},
  {"ror": "https://ror.org/01ej3e061", "label": "Kölner Hochschule für Katholische Theologie (KHKT)"},
  {"ror": "https://ror.org/036smcz74", "label": "Vinzenz Pallotti University"},
  {"ror": "https://ror.org/057qv9h29", "label": "Staatliche Hochschule für Musik und Darstellende Kunst Stuttgart"},
  {"ror": "https://ror.org/02m7p2c22", "label": "Hochschule für Musik und Theater München"},
  {"ror": "https://ror.org/03bthq143", "label": "Fachhochschule Westküste"},
  {"ror": "https://ror.org/00zbhen47", "label": "Weißensee Kunsthochschule Berlin"},
  {"ror": "https://ror.org/040dxjz28", "label": "Fachhochschule für öffentliche Verwaltung, Polizei und Rechtspflege des Landes Mecklenburg-Vorpommern"},
  {"ror": "https://ror.org/03y02pg02", "label": "Hochschule für Musik Detmold"},
  {"ror": "https://ror.org/01j2dwr66", "label": "Katholische Stiftungshochschule für angewandte Wissenschaften München"},
  {"ror": "https://ror.org/04z03cz64", "label": "Hochschule der Bildenden Künste Saar"},
  {"ror": "https://ror.org/02743t710", "label": "Norddeutsche Hochschule für Rechtspflege"},
  {"ror": "https://ror.org/02g11qe83", "label": "Fachhochschule für Rechtspflege Nordrhein-Westfalen"},
  {"ror": "https://ror.org/04tr4sk76", "label": "Hochschule für Finanzen NRW"},
  {"ror": "https://ror.org/04j1sr579", "label": "DHGS Deutsche Hochschule für Gesundheit und Sport"},
  {"ror": "https://ror.org/01d4n6n22", "label": "Hochschule für Wirtschaft und Umwelt Nürtingen-Geislingen (HfWU)"},
  {"ror": "https://ror.org/02qbcmz19", "label": "Hochschule für Polizei und öffentliche Verwaltung Nordrhein-Westfalen"},
  {"ror": "https://ror.org/0530gbs37", "label": "IB Hochschule für Gesundheit und Soziales"},
  {"ror": "https://ror.org/05d6z1532", "label": "Hochschule für Finanzen Rheinland-Pfalz"},
  {"ror": "https://ror.org/02a8wk986", "label": "AKAD University"},
  {"ror": "https://ror.org/0243j3z07", "label": "Europäische Fernhochschule Hamburg"},
  {"ror": "https://ror.org/02nzadc54", "label": "Hochschule für öffentliche Verwaltung Rheinland-Pfalz"},
  {"ror": "https://ror.org/04580fn28", "label": "HFH · Hamburger Fern-Hochschule gemeinnützige"},
  {"ror": "https://ror.org/01eyhzm47", "label": "Fachhochschule für Verwaltung des Saarlandes"},
  {"ror": "https://ror.org/03waye253", "label": "Hochschule Meißen (FH) und Fortbildungszentrum"},
  {"ror": "https://ror.org/04wb1en98", "label": "Das Rauhe Haus - Evangelische Hochschule für Soziale Arbeit und Diakonie"},
  {"ror": "https://ror.org/015a98c38", "label": "Accadis Hochschule Bad Homburg"},
  {"ror": "https://ror.org/00vkbtf98", "label": "Wilhelm Büchner Hochschule"},
  {"ror": "https://ror.org/04mvanw22", "label": "Fachhochschule Polizei Sachsen-Anhalt"},
  {"ror": "https://ror.org/051rc7j94", "label": "Diploma Hochschule"},
  {"ror": "https://ror.org/003xt6d81", "label": "Fachhochschule für Verwaltung und Dienstleistung (FHVD)"},
  {"ror": "https://ror.org/00xdvw685", "label": "Hochschule 21"},
  {"ror": "https://ror.org/05eyxqf74", "label": "Private Hochschule für Wirtschaft und Technik "},
  {"ror": "https://ror.org/00jbwpt44", "label": "HMKW Hochschule für Medien, Kommunikation und Wirtschaft"},
  {"ror": "https://ror.org/01f5b8367", "label": "Fachhochschule des Mittelstands (FHM)"},
  {"ror": "https://ror.org/05dbw7b97", "label": "CVJM-Hochschule"},
  {"ror": "https://ror.org/0367m1n91", "label": "Hochschule Weserbergland (HSW)"},
  {"ror": "https://ror.org/01k6xby62", "label": "SRH Hochschule in Nordrhein-Westfalen"},
  {"ror": "https://ror.org/03hj8rz96", "label": "Hochschule für Gesundheit"},
  {"ror": "https://ror.org/041w2kh96", "label": "University of Europe for Applied Sciences"},
  {"ror": "https://ror.org/046ns5110", "label": "Fachhochschule der Wirtschaft Nordrhein-Westfalen"},
  {"ror": "https://ror.org/00yvfbm89", "label": "Fachhochschule der Diakonie"},
  {"ror": "https://ror.org/047h65335", "label": "Deutsche Hochschule für Prävention und Gesundheitsmanagement"},
  {"ror": "https://ror.org/03t7d6q88", "label": "Hochschule des Bundes für Öffentliche Verwaltung"},
  {"ror": "https://ror.org/04ms51788", "label": "Westsächsische Hochschule Zwickau"},
  {"ror": "https://ror.org/05k9vmz93", "label": "Hochschule für Telekommunikation Leipzig"},
  {"ror": "https://ror.org/02r724415", "label": "Stiftung Evangelische Hochschule für Soziale Arbeit Dresden"},
  {"ror": "https://ror.org/055s1wn27", "label": "Hochschule für Polizei Baden-Württemberg"},
  {"ror": "https://ror.org/01v7j8968", "label": "Hochschule für den öffentlichen Dienst in Bayern"},
  {"ror": "https://ror.org/05k17x772", "label": "Hochschule der Polizei des Landes Brandenburg"},
  {"ror": "https://ror.org/00jvbme10", "label": "Fachhochschule für Finanzen des Landes Brandenburg"},
  {"ror": "https://ror.org/03bavdz78", "label": "Hochschule für Musik Freiburg"},
  {"ror": "https://ror.org/05q2pee13", "label": "Hochschule für Öffentliche Verwaltung (HfÖV)"},
  {"ror": "https://ror.org/01ptm9403", "label": "Palucca Hochschule für Tanz Dresden"},
  {"ror": "https://ror.org/01hwhm419", "label": "Hessische Hochschule für öffentliches Management und Sicherheit"},
  {"ror": "https://ror.org/03eqwj662", "label": "Leibniz Fachhochschule"},
  {"ror": "https://ror.org/035jc1316", "label": "Land Hessen Studienzentrum der Finanzverwaltung und Justiz Rotenburg a. d. Fulda"},
  {"ror": "https://ror.org/00j9xkc07", "label": "EU|FH - Hochschule für Gesundheit, Soziales & Pädagogik"},
  {"ror": "https://ror.org/036f7qt17", "label": "Fliedner Fachhochschule Düsseldorf"},
  {"ror": "https://ror.org/02kraxp86", "label": "SRH Berlin School of Popular Arts"},
  {"ror": "https://ror.org/05fe3fx56", "label": "Chirurgische Universitätsklinik Heidelberg"},
  {"ror": "https://ror.org/037tkh273", "label": "Universitätsklinik für Hals-, Nasen- und Ohrenheilkunde, Kopf- und Halschirurgie, Magdeburg"},
  {"ror": "https://ror.org/022598c22", "label": "University of Maryland University College Europe"},
  {"ror": "https://ror.org/04kzfg204", "label": "APOLLON Hochschule der Gesundheitswirtschaft"},
  {"ror": "https://ror.org/040aqvh16", "label": "United Nations University"},
  {"ror": "https://ror.org/00apjgf04", "label": "Schiller International University"},
  {"ror": "https://ror.org/04839sh14", "label": "Medizinische Hochschule Brandenburg Theodor Fontane (MHB)"},
  {"ror": "https://ror.org/05gxhfq53", "label": "Hochschule der Polizei Rheinland Pfalz"},
  {"ror": "https://ror.org/01nbps758", "label": "iba - University of Cooperative Education"},
  {"ror": "https://ror.org/04dneqm75", "label": "Augenklinik Universitätsallee, Bremen"},
  {"ror": "https://ror.org/05gtwra97", "label": "Klinik für Hals-Nasen-Ohrenheilkunde, Kopf- und Halschirurgie, Mannheim"},
  {"ror": "https://ror.org/0493xsw21", "label": "Berliner Institut für Gesundheitsforschung in der Charité"},
  {"ror": "https://ror.org/03esvmb28", "label": "Klinik für Kinder- und Jugendmedizin, Tübingen"},
  {"ror": "https://ror.org/0248h4s70", "label": "Universitäts-Hautklinik Kiel"},
  {"ror": "https://ror.org/043yx1v14", "label": "RKU – Universitäts- und Rehabilitationskliniken Ulm"},
  {"ror": "https://ror.org/015e4mc09", "label": "Universitäts Kinder- und Frauenzentrum - UKF, Dresden"},
  {"ror": "https://ror.org/000ph9k36", "label": "Universitäts-Kinderklinik Würzburg"},
  {"ror": "https://ror.org/056gvz809", "label": "Klinik und Poliklinik für Augenheilkunde am Universitätsklinikum Carl Gustav Carus Dresden"},
  {"ror": "https://ror.org/01vzx5p25", "label": "Universitätsaugenklinik Magdeburg"},
  {"ror": "https://ror.org/02zmrd443", "label": "Klinik und Poliklinik für Augenheilkunde, Regensburg"},
  {"ror": "https://ror.org/00rwpbm87", "label": "Klinik und Poliklinik für Augenheilkunde, Würzburg"},
  {"ror": "https://ror.org/02veq1j93", "label": "Universitäts Frauenklinik, Universitätsklinikum Tübingen"},
  {"ror": "https://ror.org/02r8sh830", "label": "Helios Universitätsklinikum Wuppertal"},
  {"ror": "https://ror.org/04b85d432", "label": "Universitäts-HNO-Klinik Heidelberg"},
  {"ror": "https://ror.org/03d0yjb51", "label": "IST-Hochschule für Management"},
  {"ror": "https://ror.org/0137q5a72", "label": "Universitätsklinik für Nieren- und Hochdruckkrankheiten, Diabetologie und Endokrinologie, Magdeburg"},
  {"ror": "https://ror.org/01ezw9n40", "label": "Orthopädischen Universitätsklinik, Magdeburg"},
  {"ror": "https://ror.org/05c06xk76", "label": "Universitätsklinik für Stereotaktische Neurochirurgie, Magdeburg"},
  {"ror": "https://ror.org/02w0smy45", "label": "Universitätsklinik für Strahlentherapie, Magdeburg"},
  {"ror": "https://ror.org/02dqsp291", "label": "Klinik für Frauenheilkunde, Geburtshilfe und Reproduktionsmedizin, Homburg"},
  {"ror": "https://ror.org/04rr26086", "label": "Universitätskinderklinik, Magdeburg"},
  {"ror": "https://ror.org/007bw6q41", "label": "Evangelische Hochschule Berlin (EHB)"},
  {"ror": "https://ror.org/03z6vda50", "label": "FDHW Hannover"},
  {"ror": "https://ror.org/03jtvc520", "label": "Energiewirtschaftliches Institut an der Universität zu Köln (EWI)"},
  {"ror": "https://ror.org/00js99a33", "label": "Battery-University"},
  {"ror": "https://ror.org/02qchbs48", "label": "Psychologische Hochschule Berlin (PHB)"},
  {"ror": "https://ror.org/03a8y0358", "label": "FIVE Forschungs- und Innovationsverbund an der Evangelischen Hochschule Freiburg e.V."},
  {"ror": "https://ror.org/01ksmk704", "label": "Institut für Rohrleitungsbau an der Fachhochschule Oldenburg"},
  {"ror": "https://ror.org/04sy7nb49", "label": "Leibniz-Institut für Lebensmittel-Systembiologie an der Technischen Universität München"},
  {"ror": "https://ror.org/00717c553", "label": "PTH Philosophisch-Theologische Hochschule Münster"},
  {"ror": "https://ror.org/0493yt138", "label": "Thüringer Universitäts- und Landesbibliothek"},
  {"ror": "https://ror.org/03bh13774", "label": "SRH Wilhelm Löhe Hochschule (SRH WLH)"},
  {"ror": "https://ror.org/04cwb1p56", "label": "Staats- und Universitätsbibliothek Bremen"},
  {"ror": "https://ror.org/00x67g916", "label": "Allensbach Hochschule"},
  {"ror": "https://ror.org/03t7jd518", "label": "Duale Hochschule Gera-Eisenach"},
  {"ror": "https://ror.org/03gzxs418", "label": "Hochschule für öffentliche Verwaltung und Finanzen Ludwigsburg"},
  {"ror": "https://ror.org/03ps48j85", "label": "Hochschule für Musik Karlsruhe"},
  {"ror": "https://ror.org/00pwcvj19", "label": "Staats- und Universitätsbibliothek Hamburg - Carl von Ossietzky "},
  {"ror": "https://ror.org/02dsdsv34", "label": "Hochschule für Polizei und öffentliche Verwaltung Nordrhein-Westfalen"},
  {"ror": "https://ror.org/05ff3vp46", "label": "Forschungs- und Entwicklungszentrum Fachhochschule Kiel"},
  {"ror": "https://ror.org/0191jdv19", "label": "Fachhochschule Clara Hoffbauer Potsdam"},
  {"ror": "https://ror.org/022zhm372", "label": "Paracelsus Medizinische Privatuniversität"},
  {"ror": "https://ror.org/00yx29a03", "label": "SRH Fernhochschule - The Mobile University"},
  {"ror": "https://ror.org/04nkkrh90", "label": "LWL-Universitätsklinikum der Ruhr-Universität Bochum"},
  {"ror": "https://ror.org/04zzd2n41", "label": "Universitätsklinik für Psychiatrie und Psychotherapie, Lübbecke-Rahden"},
  {"ror": "https://ror.org/01c577389", "label": "Universitätsklinik für Psychosomatik und Psychotherapie, Lübbecke-Rahden"},
  {"ror": "https://ror.org/05w1kdn42", "label": "LWL-Universitätsklinik Hamm"},
  {"ror": "https://ror.org/04vpsen23", "label": "HSD Hochschule Döpfer"},
  {"ror": "https://ror.org/05kkv3f82", "label": "Universität der Bundeswehr München"},
  {"ror": "https://ror.org/001w7jn25", "label": "Charité – Universitätsmedizin Berlin"},
  {"ror": "https://ror.org/05n911h24", "label": "Technische Universität Darmstadt"},
  {"ror": "https://ror.org/04ers2y35", "label": "Universität Bremen"},
  {"ror": "https://ror.org/058kzsd48", "label": "Universität Paderborn"},
  {"ror": "https://ror.org/01weqhp73", "label": "Technische Universität Ilmenau"},
  {"ror": "https://ror.org/01xzwj424", "label": "Hochschule für Technik und Wirtschaft Berlin"},
  {"ror": "https://ror.org/01y9bpm73", "label": "Georg-August-Universität Göttingen"},
  {"ror": "https://ror.org/00f2wje32", "label": "Kunsthochschule für Medien Köln"},
  {"ror": "https://ror.org/02kw5st29", "label": "THD - Technische Hochschule Deggendorf"},
  {"ror": "https://ror.org/01js2sh04", "label": "Deutsches Elektronen-Synchrotron DESY"},
  {"ror": "https://ror.org/0327sr118", "label": "DIPF | Leibniz-Institut für Bildungsforschung und Bildungsinformation"},
  {"ror": "https://ror.org/05ex5vz81", "label": "Bundesinstitut für Arzneimittel und Medizinprodukte (BfArM)"},
  {"ror": "https://ror.org/0387prb75", "label": "FIZ Karlsruhe – Leibniz-Institut für Informationsinfrastruktur"},
  {"ror": "https://ror.org/02h2x0161", "label": "GEOMAR Helmholtz-Zentrum für Ozeanforschung Kiel"},
  {"ror": "https://ror.org/00cd95c65", "label": "Gesellschaft für wissenschaftliche Datenverarbeitung"},
  {"ror": "https://ror.org/00f2yqf98", "label": "Medizinische Hochschule Hannover"},
  {"ror": "https://ror.org/0473a4773", "label": "Hertie School"},
  {"ror": "https://ror.org/032yym934", "label": "Kiel Institut für Weltwirtschaft "},
  {"ror": "https://ror.org/004hd5y14", "label": "Leibniz-Institut für Plasmaforschung und Technologie (INP)"},
  {"ror": "https://ror.org/04p5ggc03", "label": "Max-Delbrück-Centrum für Molekulare Medizin in der Helmholtz-Gemeinschaft"},
  {"ror": "https://ror.org/02ks53214", "label": "Max-Planck-Instituts für chemische Ökologie"},
  {"ror": "https://ror.org/01w19ak89", "label": "Planck Institut für Informatik"},
  {"ror": "https://ror.org/00ez2he07", "label": "Max-Planck-Institut für Mathematik in den Naturwissenschaften"},
  {"ror": "https://ror.org/02pe2kf23", "label": "Max Planck Institute for Software Systems"},
  {"ror": "https://ror.org/03e8s1d88", "label": "Potsdam-Institut für Klimafolgenforschung"},
  {"ror": "https://ror.org/031vc2293", "label": "Technische Universität Bergakademie Freiberg"},
  {"ror": "https://ror.org/02eva5865", "label": "Zuse-Institut Berlin "},
  {"ror": "https://ror.org/00nxdn656", "label": "Badische Landesbibliothek"},
  {"ror": "https://ror.org/0387prb75", "label": "FIZ Karlsruhe - Leibniz-Institut für Informationsinfrastruktur"},
  {"ror": "https://ror.org/05hkkdn48", "label": "Fraunhofer-Gesellschaft zur Förderung der angewandten Forschung"},
  {"ror": "https://ror.org/03k9qs827", "label": "Fritz-Haber-Instituts der Max-Planck-Gesellschaft"},
  {"ror": "https://ror.org/00ztzxf77", "label": "Kunstakademie Münster"},
  {"ror": "https://ror.org/04wtxqn67", "label": "Staatliche Kunstsammlungen Dresden"},
  {"ror": "https://ror.org/04aj4c181", "label": "Technische Informationsbibliothek (TIB) - Leibniz-Informationszentrum Technik und Naturwissenschaften - Universitätsbibliothek"}
]